key,label
ach,Acoli
ady,Adyghe
afr,Afrikaans
akk,Akkadian
alb,Albanian
alg,Algonquian
amh,Amharic
ang,Old English (ca. 450-1100)
anp,Angika
ara,Arabic
arc,Official Aramaic (700-300 BCE)
arg,Aragonese
arm,Armenian
arn,Mapudungun
arw,Arawak
asm,Assamese
ast,Asturian
aus,Australian languages
awa,Awadhi
aze,Azerbaijani
bak,Bashkir
bal,Baluchi
ban,Balinese
baq,Basque
bel,Belarusian
bem,Bemba (Zambia)
ben,Bengali
bik,Bikol
bis,Bislama
bnt,Bantu
bos,Bosnian
bra,Braj
bre,Breton
bua,Buriat
bul,Bulgarian
bur,Burmese
cai,Central American Indian
cat,Catalan
ceb,Cebuano
cel,Celtic
che,Chechen
chg,Chagatai
chi,Chinese
chk,Chuukese
chm,Mari (Russia)
cho,Choctaw
chr,Cherokee
chu,Church Slavic
chv,Chuvash
cop,Coptic
cor,Cornish
cos,Corsican
cpf,Creole (French-based)
cpe,Creoles and pidgins (English-based)
cre,Cree
crh,Crimean Tatar
crp,Creole
cze,Czech
dak,Dakota
dan,Danish
del,Delaware
doi,Dogri (macrolanguage)
dra,Dravidian languages
dum,Middle Dutch (ca. 1050-1350)
dut,Dutch
dzo,Dzongkha
efi,Efik
egy,Egyptian (Ancient)
eng,English
enm,Middle English (1100-1500)
epo,Esperanto
esp,Esperanto
est,Estonian
ewe,Ewe
ewo,Ewondo
fao,Faroese
fij,Fijian
fin,Finnish
fre,French
frm,Middle French (ca. 1400-1600)
fro,Old French (842-ca. 1400)
fry,Western Frisian
fur,Friulian
gem,Germanic
geo,Georgian
ger,German
gez,Geez
gil,Gilbertese
gla,Scottish Gaelic
gle,Irish
glg,Galician
gmh,Middle High German (ca. 1050-1500)
got,Gothic
grc,Ancient Greek (to 1453)
gre,Modern Greek (1453-)
gsw,Swiss German
guj,Gujarati
gwi,Gwichʼin
hat,Haitian
hau,Hausa
haw,Hawaiian
heb,Hebrew
her,Herero
hil,Hiligaynon
hin,Hindi
hmn,Hmong
hrv,Croatian
hsb,Upper Sorbian
hun,Hungarian
ibo,Igbo
ice,Icelandic
ido,Ido
iku,Inuktitut
ilo,Iloko
ina,Interlingua (International Auxiliary Language Association)
inc,Indic
ind,Indonesian
ine,Indo-European languages
ipk,Inupiaq
ira,Iranian
ita,Italian
jav,Javanese
jpn,Japanese
jpr,Judeo-Persian
jrb,Judeo-Arabic
kaa,Kara-Kalpak
kal,Kalaallisut
kan,Kannada
kas,Kashmiri
kaw,Kawi
kaz,Kazakh
kbd,Kabardian
kha,Khasi
khi,Khoisan
khm,Central Khmer
kik,Kikuyu
kin,Kinyarwanda
kir,Kirghiz
kok,Konkani (macrolanguage)
kom,Komi
kon,Kongo
kor,Korean
kpe,Kpelle
kro,Kru
kua,Kuanyama
kur,Kurdish
lad,Ladino
lao,Lao
lat,Latin
lav,Latvian
lin,Lingala
lit,Lithuanian
loz,Lozi
ltz,Luxembourgish
lug,Ganda
lun,Lunda
luo,Luo (Kenya and Tanzania)
lus,Lushai
mac,Macedonian
mad,Madurese
mah,Marshallese
mai,Maithili
mal,Malayalam
man,Mandingo
mao,Maori
map,Austronesian
mar,Marathi
may,Malay (macrolanguage)
min,Minangkabau
mis,Uncoded languages
mlg,Malagasy
mlt,Maltese
mnc,Manchu
mni,Manipuri
moh,Mohawk
mon,Mongolian
mul,Multiple languages
mus,Creek
mwr,Marwari
myn,Mayan
nah,Nahuatl
nai,North American Indian
nav,Navajo
nbl,South Ndebele
ndo,Ndonga
nds,Low German
nep,Nepali (macrolanguage)
new,Newari
nic,Niger-Kordofanian
niu,Niuean
nno,Norwegian Nynorsk
nob,Norwegian Bokmål
non,Old Norse
nor,Norwegian
nso,Pedi
nya,Nyanja
nyn,Nyankole
nyo,Nyoro
oci,Occitan (post 1500)
ori,Oriya (macrolanguage)
oss,Ossetian
ota,Ottoman Turkish (1500-1928)
paa,Papuan
pan,Panjabi
pap,Papiamento
per,Persian
pli,Pali
pol,Polish
pon,Pohnpeian
por,Portuguese
pro,Old Provençal (to 1500)
pus,Pushto
que,Quechua
raj,Rajasthani
rar,Rarotongan
roa,Romance
roh,Romansh
rom,Romany
rum,Romanian
run,Rundi
rus,Russian
sai,South American Indian
sam,Samaritan Aramaic
san,Sanskrit
sat,Santali
scc,Shona
sco,Scots
sem,Semitic languages
sin,Sinhala
sit,Sino-Tibetan
sla,Slavic
slo,Slovak
slv,Slovenian
sma,Southern Sami
sme,Northern Sami
smi,Sami
smj,Lule Sami
smn,Inari Sami
smo,Samoan
sms,Skolt Sami
sna,Shona
snd,Sindhi
snh,Chakobo
som,Somali
sot,Southern Sotho
spa,Spanish
srd,Sardinian
srp,Serbian
ssa,Nilo-Saharan
ssw,Swati
sun,Sundanese
sux,Sumerian
swa,Swahili (macrolanguage)
swe,Swedish
syc,Classical Syriac
syr,Syriac
tah,Tahitian
tam,Tamil
tat,Tatar
tel,Telugu
tem,Timne
tgk,Tajik
tgl,Tagalog
tha,Thai
tib,Tibetan
tir,Tigrinya
tiv,Tiv
tkl,Tokelau
tog,Tonga (Nyasa)
ton,Tonga (Tonga Islands)
tsn,Tswana
tso,Tsonga
tuk,Turkmen
tum,Tumbuka
tur,Turkish
tut,Altaic
tvl,Tuvalu
twi,Twi
tyv,Tuvinian
udm,Udmurt
uig,Uighur
ukr,Ukrainian
und,Undetermined
urd,Urdu
uzb,Uzbek
ven,Venda
vie,Vietnamese
vol,Volapük
vot,Votic
wel,Welsh
wen,Sorbian
wln,Walloon
wol,Wolof
xal,Kalmyk
xho,Xhosa
yao,Yao
yap,Yapese
yid,Yiddish
yor,Yoruba
ypk,Yupik
zap,Zapotec
zul,Zulu
zxx,No linguistic content
cam,Cemuhî
eth,Ethiopian Sign Language
iri,Irigwe
kav,Katukína
sho,Shanga
sso,Sissano
taj,Eastern Tamang
tte,Bwanabwana
yba,Yala
